Gapminder
…
## 
## -- Column specification --------------------------------------------------------
## cols(
##   .default = col_character(),
##   `is--country` = col_logical(),
##   iso3166_1_numeric = col_double(),
##   latitude = col_double(),
##   longitude = col_double(),
##   un_state = col_logical()
## )
## i Use `spec()` for the full column specifications.

print(g_c)

## # A tibble: 273 x 21
##    country g77_and_oecd_co~ income_3groups income_groups `is--country`
##    <chr>   <chr>            <chr>          <chr>         <lgl>        
##  1 abkh    others           <NA>           <NA>          TRUE         
##  2 abw     others           high_income    high_income   TRUE         
##  3 afg     g77              low_income     low_income    TRUE         
##  4 ago     g77              middle_income  lower_middle~ TRUE         
##  5 aia     others           <NA>           <NA>          TRUE         
##  6 akr_a_~ others           <NA>           <NA>          TRUE         
##  7 ala     others           <NA>           <NA>          TRUE         
##  8 alb     others           middle_income  upper_middle~ TRUE         
##  9 and     others           high_income    high_income   TRUE         
## 10 ant     others           <NA>           <NA>          TRUE         
## # ... with 263 more rows, and 16 more variables: iso3166_1_alpha2 <chr>,
## #   iso3166_1_alpha3 <chr>, iso3166_1_numeric <dbl>, iso3166_2 <chr>,
## #   landlocked <chr>, latitude <dbl>, longitude <dbl>,
## #   main_religion_2008 <chr>, name <chr>, un_sdg_ldc <chr>,
## #   un_sdg_region <chr>, un_state <lgl>, unicef_region <chr>,
## #   unicode_region_subtag <chr>, world_4region <chr>, world_6region <chr>
…
